{
    "success": true,
    "code": null,
    "message": null,
    "pageNum": 1,
    "pageSize": 10,
    "pageCount": 5,
    "total": 49,
    "data": [
        {
            "id": "9599ad7fcde6420087aab671b6056d9f",
            "level": "2",
            "sublevel": "22",
            "room": "308",
            "num": 50,
            "totalPeriod": 10,
            "overPeriod": 4,
            "startdate": 1587600000000,
            "teacher": "亨利老师",
            "phoneno": "18992809405",
            "fee": 1.00,
            "count": 1,
            "imgurl": "https://lndx-1259479103.cos.ap-chengdu.myqcloud.com/college/image/20200423/b04b0e87de464909a017adb890f7ac94.jpeg",
            "comment": "",
            "createtime": 1587617635000,
            "updatetime": 1587718469000,
            "delFlage": 0,
            "hot": 1,
            "middleTime": null,
            "lastTime": 1587650400000,
            "signNum": 1,
            "status": 2,
            "conStatu": 1,
            "name": "我最爱的唱歌课程",
            "starttime": "14:00",
            "endtime": "22:00",
            "day": "1,2,3,4,5,6,7",
            "relFee": 1.00,
            "showTimeInfo": "每周一、二、三、四、五、六、日14:00-22:00",
            "imgs": null,
            "sublevelName": "声乐戏剧",
            "levelName": "中级班",
            "conStatusString": "继续招生",
            "delFlag": null,
            "days": null,
            "signUp": false,
            "favorite": false
        },
        {
            "id": "f0143996c14047a4a65cf6695a80a33d",
            "level": "1",
            "sublevel": "13",
            "room": "3004",
            "num": 3,
            "totalPeriod": 20,
            "overPeriod": 4,
            "startdate": 1585699200000,
            "teacher": "大聪明",
            "phoneno": "13800000000",
            "fee": 0.01,
            "count": 126,
            "imgurl": "https://lndx-1259479103.cos.ap-chengdu.myqcloud.com/college/image/20200421/c96acf90a84e4bdf88ce10d93601ffea.jpg",
            "comment": "",
            "createtime": 1587457131000,
            "updatetime": 1587458677000,
            "delFlage": 0,
            "hot": 1,
            "middleTime": null,
            "lastTime": 1587351600000,
            "signNum": 2,
            "status": 2,
            "conStatu": 1,
            "name": "20200421测试课程1",
            "starttime": "09:00",
            "endtime": "11:00",
            "day": "1",
            "relFee": 0.01,
            "showTimeInfo": "每周一09:00-11:00",
            "imgs": null,
            "sublevelName": "舞蹈武术",
            "levelName": "初级班",
            "conStatusString": "继续招生",
            "delFlag": null,
            "days": null,
            "signUp": false,
            "favorite": false
        },
        {
            "id": "e5e07f5696de4b71b091c293d2332547",
            "level": "1",
            "sublevel": "27",
            "room": "012",
            "num": 10,
            "totalPeriod": 3,
            "overPeriod": 3,
            "startdate": 1586995200000,
            "teacher": "谷老师",
            "phoneno": "13613633387",
            "fee": 0.01,
            "count": 10,
            "imgurl": "https://lndx-1259479103.cos.ap-chengdu.myqcloud.com/college/image/20200414/96a90fb914c043afa362e37e53fe7c98.jpg",
            "comment": "",
            "createtime": 1586842955000,
            "updatetime": 1587264625000,
            "delFlage": 0,
            "hot": 1,
            "middleTime": null,
            "lastTime": 1587092400000,
            "signNum": 10,
            "status": 2,
            "conStatu": 1,
            "name": "测试全民健身",
            "starttime": "09:30",
            "endtime": "11:00",
            "day": "1,3,5",
            "relFee": 0,
            "showTimeInfo": "每周一、三、五09:30-11:00",
            "imgs": null,
            "sublevelName": "摄影摄像",
            "levelName": "初级班",
            "conStatusString": "继续招生",
            "delFlag": null,
            "days": null,
            "signUp": false,
            "favorite": false
        },
        {
            "id": "4c1aed41391149309f52b3b8e01902e0",
            "level": "1",
            "sublevel": "27",
            "room": "011",
            "num": 30,
            "totalPeriod": 6,
            "overPeriod": 0,
            "startdate": 1588291200000,
            "teacher": "潘老师",
            "phoneno": "13777777777",
            "fee": 0.01,
            "count": 0,
            "imgurl": "https://lndx-1259479103.cos.ap-chengdu.myqcloud.com/college/image/20200413/5ea0fe683c474df1a66be5a096a0a2e1.jpg",
            "comment": "",
            "createtime": 1586767359000,
            "updatetime": 1586773024000,
            "delFlage": 0,
            "hot": 1,
            "middleTime": null,
            "lastTime": null,
            "signNum": 6,
            "status": 2,
            "conStatu": 1,
            "name": "春季全民健身",
            "starttime": "14:00",
            "endtime": "16:30",
            "day": "1,3,5",
            "relFee": 0.01,
            "showTimeInfo": "每周一、三、五14:00-16:30",
            "imgs": null,
            "sublevelName": "摄影摄像",
            "levelName": "初级班",
            "conStatusString": "继续招生",
            "delFlag": null,
            "days": null,
            "signUp": false,
            "favorite": false
        },
        {
            "id": "b53ea936024047899758d7f003fddeb6",
            "level": "1",
            "sublevel": "27",
            "room": "005",
            "num": 30,
            "totalPeriod": 3,
            "overPeriod": 0,
            "startdate": 1588204800000,
            "teacher": "托尼老师",
            "phoneno": "13888888888",
            "fee": 0.01,
            "count": 0,
            "imgurl": "https://lndx-1259479103.cos.ap-chengdu.myqcloud.com/college/image/20200413/6259c2f2766f44b69ea88033d668d879.jpg",
            "comment": "",
            "createtime": 1586743215000,
            "updatetime": null,
            "delFlage": 0,
            "hot": 1,
            "middleTime": null,
            "lastTime": null,
            "signNum": 5,
            "status": 2,
            "conStatu": 1,
            "name": "413",
            "starttime": "10:00",
            "endtime": "11:30",
            "day": "1,3,5",
            "relFee": 0.01,
            "showTimeInfo": "每周一、三、五10:00-11:30",
            "imgs": null,
            "sublevelName": "摄影摄像",
            "levelName": "初级班",
            "conStatusString": "继续招生",
            "delFlag": null,
            "days": null,
            "signUp": false,
            "favorite": false
        },
        {
            "id": "8682519b510d45829fd3318682fec072",
            "level": "1",
            "sublevel": "11",
            "room": "888",
            "num": 30,
            "totalPeriod": 3,
            "overPeriod": 0,
            "startdate": 1588204800000,
            "teacher": "托尼",
            "phoneno": "13333333333",
            "fee": 0.01,
            "count": 0,
            "imgurl": "https://lndx-1259479103.cos.ap-chengdu.myqcloud.com/college/image/20200408/bc55742f5dee4b57b2f5fb6a4e775cac.jpg",
            "comment": "",
            "createtime": 1586344837000,
            "updatetime": null,
            "delFlage": 0,
            "hot": 1,
            "middleTime": null,
            "lastTime": null,
            "signNum": 1,
            "status": 2,
            "conStatu": 2,
            "name": "测试",
            "starttime": "10:00",
            "endtime": "",
            "day": "1,3,5",
            "relFee": 0.01,
            "showTimeInfo": "每周一、三、五10:00-",
            "imgs": null,
            "sublevelName": "声乐戏剧",
            "levelName": "初级班",
            "conStatusString": "停止招生",
            "delFlag": null,
            "days": null,
            "signUp": false,
            "favorite": false
        },
        {
            "id": "fb7cc2befa29420ab93290584a66481b",
            "level": "1",
            "sublevel": "11",
            "room": "001",
            "num": 50,
            "totalPeriod": 10,
            "overPeriod": 0,
            "startdate": 1588291200000,
            "teacher": "托尼",
            "phoneno": "18888888888",
            "fee": 188.00,
            "count": 1,
            "imgurl": "https://lndx-1259479103.cos.ap-chengdu.myqcloud.com/college/image/20200328/bd23876cc41a4e558927971d22f3e1d8.jpg",
            "comment": "",
            "createtime": 1585384025000,
            "updatetime": null,
            "delFlage": 0,
            "hot": 1,
            "middleTime": null,
            "lastTime": null,
            "signNum": 5,
            "status": 2,
            "conStatu": 1,
            "name": "测试",
            "starttime": "10:00",
            "endtime": "",
            "day": "1,3,5",
            "relFee": 188.00,
            "showTimeInfo": "每周一、三、五10:00-",
            "imgs": null,
            "sublevelName": "声乐戏剧",
            "levelName": "初级班",
            "conStatusString": "继续招生",
            "delFlag": null,
            "days": null,
            "signUp": false,
            "favorite": false
        },
        {
            "id": "cc47af1040c040308c2f4ac86cdaf23c",
            "level": "1",
            "sublevel": "11",
            "room": "001",
            "num": 50,
            "totalPeriod": 10,
            "overPeriod": 0,
            "startdate": 1588291200000,
            "teacher": "托尼",
            "phoneno": "18888888888",
            "fee": 188.00,
            "count": 1,
            "imgurl": "https://lndx-1259479103.cos.ap-chengdu.myqcloud.com/college/image/20200328/bd23876cc41a4e558927971d22f3e1d8.jpg",
            "comment": "",
            "createtime": 1585383922000,
            "updatetime": null,
            "delFlage": 0,
            "hot": 1,
            "middleTime": null,
            "lastTime": null,
            "signNum": 1,
            "status": 2,
            "conStatu": 1,
            "name": "测试",
            "starttime": "10:00",
            "endtime": "",
            "day": "1,3,5",
            "relFee": 188.00,
            "showTimeInfo": "每周一、三、五10:00-",
            "imgs": null,
            "sublevelName": "声乐戏剧",
            "levelName": "初级班",
            "conStatusString": "继续招生",
            "delFlag": null,
            "days": null,
            "signUp": false,
            "favorite": false
        },
        {
            "id": "02b771cf5cd345dc8bc46caab42c9635",
            "level": "1",
            "sublevel": "25",
            "room": "407",
            "num": 30,
            "totalPeriod": 10,
            "overPeriod": 0,
            "startdate": 1585699200000,
            "teacher": "刘老师",
            "phoneno": "13804508278",
            "fee": 1.00,
            "count": 0,
            "imgurl": "https://lndx-1259479103.cos.ap-chengdu.myqcloud.com/college/image/20200327/598e23ecd1dd4d24af61816383abf1f3.jpg",
            "comment": "",
            "createtime": 1585298528000,
            "updatetime": null,
            "delFlage": 0,
            "hot": 1,
            "middleTime": null,
            "lastTime": null,
            "signNum": 0,
            "status": 1,
            "conStatu": 2,
            "name": "网络主播培养计划",
            "starttime": "16:40",
            "endtime": "",
            "day": "1,3,5,2,4",
            "relFee": 1.00,
            "showTimeInfo": "每周一、三、五、二、四16:40-",
            "imgs": null,
            "sublevelName": "健康养生",
            "levelName": "初级班",
            "conStatusString": "停止招生",
            "delFlag": null,
            "days": null,
            "signUp": false,
            "favorite": false
        },
        {
            "id": "1a40ee4939614ca2b43480f58a8cad3e",
            "level": "1",
            "sublevel": "11",
            "room": "890",
            "num": 45,
            "totalPeriod": 45,
            "overPeriod": 10,
            "startdate": 1577404800000,
            "teacher": "si",
            "phoneno": "18221463023",
            "fee": 45.00,
            "count": 0,
            "imgurl": "https://lndx-1259479103.cos.ap-chengdu.myqcloud.com/college/image/20191226/d73beac782644147b3206b76fc7193c8.jpg",
            "comment": "",
            "createtime": 1577341370000,
            "updatetime": 1585387615000,
            "delFlage": 0,
            "hot": 1,
            "middleTime": null,
            "lastTime": 1579633200000,
            "signNum": 1,
            "status": 2,
            "conStatu": 1,
            "name": "疯狂英语",
            "starttime": "02:00",
            "endtime": "03:00",
            "day": "2,3",
            "relFee": 45.00,
            "showTimeInfo": "每周二、三02:00-03:00",
            "imgs": null,
            "sublevelName": "声乐戏剧",
            "levelName": "初级班",
            "conStatusString": "继续招生",
            "delFlag": null,
            "days": null,
            "signUp": false,
            "favorite": false
        }
    ]
}